FSM/conveyor.vcd
$date
	Wed Dec 03 20:47:32 2025
$end
$version
	Icarus Verilog
$end
$timescale
	1ps
$end
$scope module tb_fsm_conveyor $end
$var wire 2 ! state [1:0] $end
$var wire 1 " motor $end
$var wire 4 # counter [3:0] $end
$var wire 1 $ alarm $end
$var reg 1 % clk $end
$var reg 1 & emergency $end
$var reg 1 ' rst_n $end
$var reg 1 ( sensor $end
$scope module dut $end
$var wire 1 % clk $end
$var wire 1 & emergency $end
$var wire 1 ' rst_n $end
$var wire 1 ( sensor $end
$var parameter 2 ) ERR $end
$var parameter 2 * IDLE $end
$var parameter 2 + RUN $end
$var parameter 2 , WAIT $end
$var reg 1 $ alarm $end
$var reg 4 - counter [3:0] $end
$var reg 1 " motor $end
$var reg 2 . state [1:0] $end
$upscope $end
$upscope $end
$enddefinitions $end
$comment Show the parameter values. $end
$dumpall
b10 ,
b1 +
b0 *
b11 )
$end
#0
$dumpvars
b0 .
b0 -
0(
0'
0&
0%
0$
b0 #
0"
b0 !
$end
#5000
1%
#10000
0%
#15000
1%
#20000
0%
1'
#25000
1%
#30000
0%
#35000
1%
#40000
0%
#45000
1%
#50000
0%
1(
#55000
b1 !
b1 .
1%
#60000
0%
#65000
b1 #
b1 -
1"
1%
#70000
0%
#75000
b10 #
b10 -
1%
#80000
0%
#85000
b11 #
b11 -
1%
#90000
0%
#95000
b100 #
b100 -
1%
#100000
0%
#105000
b101 #
b101 -
1%
#110000
0%
#115000
b110 #
b110 -
1%
#120000
0%
#125000
b111 #
b111 -
1%
#130000
0%
#135000
b1000 #
b1000 -
1%
#140000
0%
#145000
b1001 #
b1001 -
1%
#150000
0%
0(
#155000
b10 !
b10 .
b1010 #
b1010 -
1%
#160000
0%
#165000
0"
1%
#170000
0%
#175000
1%
#180000
0%
#185000
1%
#190000
0%
#195000
1%
#200000
0%
#205000
1%
#210000
0%
1(
#215000
b1 !
b1 .
1%
#220000
0%
#225000
b1011 #
b1011 -
1"
1%
#230000
0%
#235000
b1100 #
b1100 -
1%
#240000
0%
#245000
b1101 #
b1101 -
1%
#250000
0%
#255000
b1110 #
b1110 -
1%
#260000
0%
#265000
b1111 #
b1111 -
1%
#270000
0%
#275000
b0 #
b0 -
1%
#280000
0%
#285000
b1 #
b1 -
1%
#290000
0%
1&
#295000
b11 !
b11 .
b10 #
b10 -
1%
#300000
0%
#305000
1$
0"
1%
#310000
0%
#315000
1%
#320000
0%
#325000
1%
#330000
0%
#335000
1%
#340000
0%
0&
